C:\Provost\Workspace\PriceService\src\main\java\com\citi\pricing\PriceServiceApplication.java
C:\Provost\Workspace\PriceService\src\main\java\com\citi\pricing\TrackedStock.java
C:\Provost\Workspace\PriceService\src\main\java\com\citi\pricing\Surge.java
C:\Provost\Workspace\PriceService\src\main\java\com\citi\pricing\PriceService.java
C:\Provost\Workspace\PriceService\src\main\java\com\citi\pricing\BasePrices.java
C:\Provost\Workspace\PriceService\src\main\java\com\citi\pricing\Wave.java
